…
2. OPTIMAL PARAMETERS BY NETWORK SIZE:
# A tibble: 45 × 4
# Groups:   N, perturbation_type [45]
       N perturbation_type param_value mean_f1
   <int> <chr>                   <dbl>   <dbl>
 1    10 const_high               0.95   1    
 2    10 const_low                0.01   0.782
 3    10 lambda_double            2      0.829
 4    10 lambda_half              0.25   0.996
 5    20 const_high               0.95   0.978
 6    20 const_low                0.01   0.709
 7    20 lambda_double            3      0.748
 8    20 lambda_half              0.25   0.973
 9    30 const_high               0.95   0.962
10    30 const_low                0.01   0.687
# ℹ 35 more rows
# ℹ Use `print(n = ...)` to see more rows
…
4. STATISTICAL POWER BY CONDITION:
# A tibble: 133 × 5
       N perturbation_type power power_ci_lower power_ci_upper
   <int> <chr>             <dbl>          <dbl>          <dbl>
 1    10 const_high            1              1              1
 2    10 const_high            1              1              1
 3    10 const_high            1              1              1
 4    10 const_low             1              1              1
 5    10 const_low             1              1              1
 6    10 const_low             1              1              1
 7    10 lambda_double         1              1              1
 8    10 lambda_double         1              1              1
 9    10 lambda_double         1              1              1
10    10 lambda_half           1              1              1
# ℹ 123 more rows
# ℹ Use `print(n = ...)` to see more rows
